{
  "name": "mns",
  "description": "Role to deploy MNS",
  "json_class": "Chef::Role",
  "default_attributes": {

  },
  "override_attributes": {

  },
  "chef_type": "role",
  "run_list": [
		"recipe[backoffice]", "recipe[mns]"
  ],
  "env_run_lists": {

  }
}

