{
  "name": "rdbm_global",
  "description": "Role to deploy RDBM Global",
  "json_class": "Chef::Role",
  "default_attributes": {
  },
  "override_attributes": {
  },
  "chef_type": "role",
  "run_list": [
		"recipe[mfs-rdbm::rdbm_global]"
  ],
  "env_run_lists": {

  }
}
